{
  "type": "service_account",
  "project_id": "stc-website-1535896722625",
  "private_key_id": "cafdbf079967412c5e6742ae80854f9f37dc2d8b",
  "private_key": "-----BEGIN PRIVATE KEY-----\nMIIEvgIBADANBgkqhkiG9w0BAQEFAASCBKgwggSkAgEAAoIBAQDTYrIlrfk+zADH\nu/UjzZ+t4onnut0z9wuyKwOeOCy2QQnlKE/tHWxYWS9eDA629TuJDd+dbg9sDm1u\nVb5Vx0XakNbdhNY2PhsXjJlMi/Jig2W5cYZnWNDi8fCXPPGSouoML2NAuxbIiOaB\n4pAysfXl3eOvijjgMatWuo2h7VmDZG7WNFqdOYaUYjOGBZO1/e31RNGgNXkPB2Lb\n2KJRz3Xdn7E9aF/AmvtiPn76YM+2LaLxJcd8uxtcgbDOW8d+DS3fuouYO//RL6cW\nlO4EZaPoSzUyi31fFxgN5/lzpvfTJL9GtPfj4Tn96mi9EIaUDfMxPS471jvEGk6/\nUjaBpgMxAgMBAAECggEATG58zJv9qcOYqp+fER2J1ZU6WOQblG0IuRjNe5mDLTkS\nC15KnAlOAhnpQx+n+GZuau1tw94mTGNhFQqCwkBF1TQWxM0BqWZGZHrteRyG/TDW\niLlwKBEYol5pqD2ceXFXoCVIRYEASW0ar68MhZAMQdu7tl6LlyDOe5MDoB+ShKuU\nZ/zENQ+o4HKrpFx0eZR77G45KQtO0pF/UN0/zp8lycFImoN6YOYH/nMiDQ/hK4hm\ntVDcaNuo/y8HndpRFYJ68dDNarHfb7SPpZ9ohaJTSDKXRFM9sVzc9GC9ComrDwf8\nIYCSCwWkvlwiJcuV33uz+AJUdaa/fTuafh2uYPkb0wKBgQD/KWs5JnRdha8u2SGT\n6+ECPvdC/PFSoEig9c6HqFIQ/b8VF/dWBWuWxj5Yk5W3BrRm/1BazRmZyMgS4eIz\nfVQ69/jc3/B6heq1xZiUkig6Fh6+IPSIl2Ickt9qPY50TyL1kvOzuTWdcy/7Bu94\nO3C6rKIciGFRmWb974Ezl1JfNwKBgQDUFHaBTqBohSgivDKkuQy0edG2d3Fq1b19\nQYrmJ3OBLh/yGtIwDUDUpoLEYDcDaMlziponwj0hB6C3rLQvxvkKMai++pd0nkmD\nlz/sIJtF8AkMA7UWGgnGHXxYL+zBBaE0bY2T1aFbNuQEBhDErYWP5eb78YIt/A/K\nEiQuNpZU1wKBgQDddeRzMNYUib/3aEtFaJfdbCsNQB5vuV/wHAgKI+Q+jQ240BlC\n1ud/cEaSeF2cAjy3nGbwuEy89c/424aJbACcQbcEdXTx0qNY6sw4PvadG6/JEy9K\nEiH8bNluC0lF152fCNFtrpVDN8NwG5/ieayoyMbW/uOAgCUsxyAbV/4NVwKBgCcy\ntQiHUMygt99bq3yYm0mMLn+sKfFWGhTZlWOerRGWRd9Ip8qr2Gy1bfv/0Is3xewu\nFPn+Q7AkKcdpC1C9VPBWZ1sNFAtA6lOBFBZ/nFNb30AyOzkfjOjqMD5YdUjj0nzP\nNti5Jn6mcZRwzo6bh9El7ABrDeWT7hMqMTe9bSG3AoGBAJ3gXK21F3fUlBQMia+g\nV8oHcQAY+kCV7whoFr3EB8DIQyRJfuT7D//LN7yqeHnCmNeJOiFFD4ihNSCgq3P0\n0aNA2ph3WnG+EJiLnsUgdAz3DNaNpuf/BzzDp21w7+rN4IWRNetK1pm/D1Cbld9H\nwx74Q9obPPww71uYGWhhVZ/F\n-----END PRIVATE KEY-----\n",
  "client_email": "stc-785@stc-website-1535896722625.iam.gserviceaccount.com",
  "client_id": "105479913042385480242",
  "auth_uri": "https://accounts.google.com/o/oauth2/auth",
  "token_uri": "https://oauth2.googleapis.com/token",
  "auth_provider_x509_cert_url": "https://www.googleapis.com/oauth2/v1/certs",
  "client_x509_cert_url": "https://www.googleapis.com/robot/v1/metadata/x509/stc-785%40stc-website-1535896722625.iam.gserviceaccount.com"
}
